

Software Version	2.09.1



Experiment File Path:	C:\Users\Public\Documents\Felix_Enzymes\2020-11-20_Enz2\2020-11-20_Enz2_Black_Plates.xpt
Protocol File Path:	C:\Users\Public\Documents\Protocols\Enzymes18_blackplates_360_340.prt



Plate Number	Plate 175
Date	11/20/2020
Time	6:45:10 PM
Reader Type:	Synergy HTX
Reader Serial Number:	15121412
Reading Type	Reader

Procedure Details

Plate Type	96 WELL PLATE
Eject plate on completion	
Read	Fluorescence Endpoint
	Full Plate
	Filter Set 1
	    Excitation: 360/40,  Emission: 460/40
	    Optics: Top,  Gain: 35
	Light Source: Tungsten,  Standard Dynamic Range
	Read Speed: Normal,  Delay: 100 msec,  Measurements/Data Point: 10
	Read Height: 1 mm



Actual Temperature:	28.4

Results
	1	2	3	4	5	6	7	8	9	10	11	12
A	0	0	0	1	0	0	4	10	2	17	2	10	360/40,460/40
B	0	0	0	4	3	1	6	12	3	18	9	11	360/40,460/40
C	0	0	0	4	4	3	8	13	4	20	3	13	360/40,460/40
D	0	0	0	5	4	2	7	13	5	20	4	13	360/40,460/40
E	0	0	0	2	1	1	3	2	1	3	1	2	360/40,460/40
F	0	0	1	2	2	1	3	2	2	2	1	2	360/40,460/40
G	1	0	0	2	1	1	2	2	1	3	2	2	360/40,460/40
H	0	0	0	2	1	1	2	2	1	3	1	2	360/40,460/40

