buffer,buffer+MUB/AMC,buffer+substrate,sample1+substrate,sample3+substrate,sample5+substrate,sample7+substrate,sample9+substrate,sample11+substrate,sample13+substrate,sample15+substrate,sample17+substrate
buffer,buffer+MUB/AMC,buffer+substrate,sample1+substrate,sample3+substrate,sample5+substrate,sample7+substrate,sample9+substrate,sample11+substrate,sample13+substrate,sample15+substrate,sample17+substrate
buffer,buffer+MUB/AMC,buffer+substrate,sample1+substrate,sample3+substrate,sample5+substrate,sample7+substrate,sample9+substrate,sample11+substrate,sample13+substrate,sample15+substrate,sample17+substrate
buffer,buffer+MUB/AMC,buffer+substrate,sample1+substrate,sample3+substrate,sample5+substrate,sample7+substrate,sample9+substrate,sample11+substrate,sample13+substrate,sample15+substrate,sample17+substrate
buffer,buffer+MUB/AMC,buffer+substrate,sample2+substrate,sample4+substrate,sample6+substrate,sample8+substrate,sample10+substrate,sample12+substrate,sample14+substrate,sample16+substrate,sample18+substrate
buffer,buffer+MUB/AMC,buffer+substrate,sample2+substrate,sample4+substrate,sample6+substrate,sample8+substrate,sample10+substrate,sample12+substrate,sample14+substrate,sample16+substrate,sample18+substrate
buffer,buffer+MUB/AMC,buffer+substrate,sample2+substrate,sample4+substrate,sample6+substrate,sample8+substrate,sample10+substrate,sample12+substrate,sample14+substrate,sample16+substrate,sample18+substrate
buffer,buffer+MUB/AMC,buffer+substrate,sample2+substrate,sample4+substrate,sample6+substrate,sample8+substrate,sample10+substrate,sample12+substrate,sample14+substrate,sample16+substrate,sample18+substrate
