NA,NA,NA,sample1+buffer,sample3+buffer,sample5+buffer,sample7+buffer,sample9+buffer,sample11+buffer,sample13+buffer,sample15+buffer,sample17+buffer
NA,NA,NA,sample1+buffer,sample3+buffer,sample5+buffer,sample7+buffer,sample9+buffer,sample11+buffer,sample13+buffer,sample15+buffer,sample17+buffer
NA,NA,NA,sample1+buffer,sample3+buffer,sample5+buffer,sample7+buffer,sample9+buffer,sample11+buffer,sample13+buffer,sample15+buffer,sample17+buffer
NA,NA,NA,sample1+buffer,sample3+buffer,sample5+buffer,sample7+buffer,sample9+buffer,sample11+buffer,sample13+buffer,sample15+buffer,sample17+buffer
NA,NA,NA,sample2+buffer,sample4+buffer,sample6+buffer,sample8+buffer,sample10+buffer,sample12+buffer,sample14+buffer,sample16+buffer,sample18+buffer
NA,NA,NA,sample2+buffer,sample4+buffer,sample6+buffer,sample8+buffer,sample10+buffer,sample12+buffer,sample14+buffer,sample16+buffer,sample18+buffer
NA,NA,NA,sample2+buffer,sample4+buffer,sample6+buffer,sample8+buffer,sample10+buffer,sample12+buffer,sample14+buffer,sample16+buffer,sample18+buffer
NA,NA,NA,sample2+buffer,sample4+buffer,sample6+buffer,sample8+buffer,sample10+buffer,sample12+buffer,sample14+buffer,sample16+buffer,sample18+buffer
